Project 1: Exploratory Data Analysis
…
covid.by.policy <- covid.nas %>% group_by(policy_type) %>% summarize(mean_occupied = mean(Percentage.of.Staffed.Adult.ICU.Beds.Occupied.Estimated), 
    sd_occupied = sd(Percentage.of.Staffed.Adult.ICU.Beds.Occupied.Estimated), 
    n_occupied = n(), max(mean_occupied), min(mean_occupied))
covid.nas %>% summarize(max_occupied_beds = max(Total.Staffed.Adult.ICU.Beds), 
    min_occupied_beds = min(Total.Staffed.Adult.ICU.Beds))

##   max_occupied_beds min_occupied_beds
## 1               725                78

# Using more Dplyr functions
covid.by.state.policy %>% select(state, mean_occupied) %>% arrange(-mean_occupied)

## # A tibble: 37 x 2
## # Groups:   state [7]
##    state mean_occupied
##    <fct>         <dbl>
##  1 ME             69.9
##  2 ME             69.9
##  3 ME             69.9
##  4 NE             69.0
##  5 NE             69.0
##  6 NE             69.0
##  7 NE             69.0
##  8 NE             69.0
##  9 NE             69.0
## 10 HI             67.2
## # … with 27 more rows
…
